{"Loss/scores/fake": {"num": 8, "mean": -0.21527602523565292, "std": 0.06449625021874131}, "Loss/signs/fake": {"num": 8, "mean": -1.0, "std": 0.0}, "Loss/G/loss": {"num": 4, "mean": 0.8211120963096619, "std": 0.04097076072421929}, "Loss/scores/real": {"num": 8, "mean": 0.6832777559757233, "std": 1.3565001171246143}, "Loss/signs/real": {"num": 8, "mean": 0.0, "std": 1.0}, "Loss/D/loss": {"num": 4, "mean": 1.6782820224761963, "std": 0.11569507674945666}, "Loss/r1_penalty": {"num": 4, "mean": 7.128550350898877e-06, "std": 7.527411633050356e-07}, "Loss/D/reg": {"num": 4, "mean": 2.9227056074887514e-05, "std": 3.0862313215761723e-06}, "Progress/tick": {"num": 1, "mean": 0.0, "std": 0.0}, "Progress/kimg": {"num": 1, "mean": 0.004000000189989805, "std": 0.0}, "Timing/total_sec": {"num": 1, "mean": 55.824310302734375, "std": 0.0}, "Timing/sec_per_tick": {"num": 1, "mean": 6.178951740264893, "std": 0.0}, "Timing/sec_per_kimg": {"num": 1, "mean": 1544.7379150390625, "std": 0.0}, "Timing/maintenance_sec": {"num": 1, "mean": 49.64535903930664, "std": 0.0}, "Resources/cpu_mem_gb": {"num": 1, "mean": 4.847892761230469, "std": 0.0}, "Resources/peak_gpu_mem_gb": {"num": 1, "mean": 11.579816818237305, "std": 0.0}, "Resources/peak_gpu_mem_reserved_gb": {"num": 1, "mean": 13.626953125, "std": 0.0}, "Progress/augment": {"num": 1, "mean": 0.0, "std": 0.0}, "Timing/total_hours": {"num": 1, "mean": 0.015506752766668797, "std": 0.0}, "Timing/total_days": {"num": 1, "mean": 0.0006461146986111999, "std": 0.0}, "Timing/Gboth": {"num": 1, "mean": 3537.4345703125, "std": 0.0}, "Timing/Dmain": {"num": 1, "mean": 2349.79931640625, "std": 0.0}, "Timing/Dreg": {"num": 1, "mean": 441.2446594238281, "std": 0.0}, "timestamp": 1636991008.4921262}
{"Loss/scores/fake": {"num": 8000, "mean": -3.289017436766997, "std": 3.268057516119063}, "Loss/signs/fake": {"num": 8000, "mean": -0.81325, "std": 0.5819144589198656}, "Loss/G/loss": {"num": 4000, "mean": 3.850486525222659, "std": 3.247257102433778}, "Loss/scores/real": {"num": 4248, "mean": 5.565670223089318, "std": 9.941646200296395}, "Loss/signs/real": {"num": 4248, "mean": 0.7598870056497176, "std": 0.6500551812305676}, "Loss/D/loss": {"num": 4000, "mean": 0.6327393977987522, "std": 1.5063825213323556}, "Loss/r1_penalty": {"num": 248, "mean": 0.001496873165970394, "std": 0.0030825228198090035}, "Loss/D/reg": {"num": 248, "mean": 0.006137179842147405, "std": 0.012638343119583131}, "Progress/tick": {"num": 1, "mean": 1.0, "std": 0.0}, "Progress/kimg": {"num": 1, "mean": 4.004000186920166, "std": 0.0}, "Timing/total_sec": {"num": 1, "mean": 5915.98828125, "std": 0.0}, "Timing/sec_per_tick": {"num": 1, "mean": 1939.090087890625, "std": 0.0}, "Timing/sec_per_kimg": {"num": 1, "mean": 484.77252197265625, "std": 0.0}, "Timing/maintenance_sec": {"num": 1, "mean": 3921.073974609375, "std": 0.0}, "Resources/cpu_mem_gb": {"num": 1, "mean": 5.382942199707031, "std": 0.0}, "Resources/peak_gpu_mem_gb": {"num": 1, "mean": 10.497781753540039, "std": 0.0}, "Resources/peak_gpu_mem_reserved_gb": {"num": 1, "mean": 13.21484375, "std": 0.0}, "Progress/augment": {"num": 1, "mean": 0.004703995771706104, "std": 0.0}, "Timing/total_hours": {"num": 1, "mean": 1.6433300971984863, "std": 0.0}, "Timing/total_days": {"num": 1, "mean": 0.06847208738327026, "std": 0.0}, "Timing/Gboth": {"num": 1, "mean": 1064.7879638671875, "std": 0.0}, "Timing/Dmain": {"num": 1, "mean": 846.2427978515625, "std": 0.0}, "Timing/Dreg": {"num": 1, "mean": 462.1352844238281, "std": 0.0}, "timestamp": 1636992947.7230148}
{"Loss/scores/fake": {"num": 8000, "mean": -2.445483285071328, "std": 2.0639694568801126}, "Loss/signs/fake": {"num": 8000, "mean": -0.8505, "std": 0.5259750469366393}, "Loss/G/loss": {"num": 4000, "mean": 2.905222437702119, "std": 2.062343037396971}, "Loss/scores/real": {"num": 4252, "mean": 3.025982690020092, "std": 2.7663394291252703}, "Loss/signs/real": {"num": 4252, "mean": 0.7257761053621825, "std": 0.6879309884612715}, "Loss/D/loss": {"num": 4000, "mean": 0.6138166281967424, "std": 0.9352253493568584}, "Loss/r1_penalty": {"num": 252, "mean": 0.004650266390637539, "std": 0.0058920275394781}, "Loss/D/reg": {"num": 252, "mean": 0.019066091754385048, "std": 0.024157312334202534}, "Progress/tick": {"num": 1, "mean": 2.0, "std": 0.0}, "Progress/kimg": {"num": 1, "mean": 8.003999710083008, "std": 0.0}, "Timing/total_sec": {"num": 1, "mean": 7848.09228515625, "std": 0.0}, "Timing/sec_per_tick": {"num": 1, "mean": 1931.96337890625, "std": 0.0}, "Timing/sec_per_kimg": {"num": 1, "mean": 482.9908447265625, "std": 0.0}, "Timing/maintenance_sec": {"num": 1, "mean": 0.1406550407409668, "std": 0.0}, "Resources/cpu_mem_gb": {"num": 1, "mean": 5.382957458496094, "std": 0.0}, "Resources/peak_gpu_mem_gb": {"num": 1, "mean": 10.49783706665039, "std": 0.0}, "Resources/peak_gpu_mem_reserved_gb": {"num": 1, "mean": 13.21484375, "std": 0.0}, "Progress/augment": {"num": 1, "mean": 0.008479978889226913, "std": 0.0}, "Timing/total_hours": {"num": 1, "mean": 2.180025577545166, "std": 0.0}, "Timing/total_days": {"num": 1, "mean": 0.09083440154790878, "std": 0.0}, "Timing/Gboth": {"num": 1, "mean": 1056.7362060546875, "std": 0.0}, "Timing/Dmain": {"num": 1, "mean": 839.7793579101562, "std": 0.0}, "Timing/Dreg": {"num": 1, "mean": 456.7531433105469, "std": 0.0}, "timestamp": 1636994879.851262}
{"Loss/scores/fake": {"num": 8000, "mean": -2.430971752192825, "std": 1.691462056318436}, "Loss/signs/fake": {"num": 8000, "mean": -0.86375, "std": 0.5039205666570873}, "Loss/G/loss": {"num": 4000, "mean": 2.8252357251793145, "std": 1.4738156975523635}, "Loss/scores/real": {"num": 4248, "mean": 2.6983277981508027, "std": 2.2070468984325387}, "Loss/signs/real": {"num": 4248, "mean": 0.7542372881355932, "std": 0.6566019442446589}, "Loss/D/loss": {"num": 4000, "mean": 0.5516960125723853, "std": 0.7480847493518464}, "Loss/r1_penalty": {"num": 248, "mean": 0.012135107040164931, "std": 0.014441486496567648}, "Loss/D/reg": {"num": 248, "mean": 0.049753937644944075, "std": 0.05921009370643226}, "Progress/tick": {"num": 1, "mean": 3.0, "std": 0.0}, "Progress/kimg": {"num": 1, "mean": 12.003999710083008, "std": 0.0}, "Timing/total_sec": {"num": 1, "mean": 9775.7783203125, "std": 0.0}, "Timing/sec_per_tick": {"num": 1, "mean": 1927.520263671875, "std": 0.0}, "Timing/sec_per_kimg": {"num": 1, "mean": 481.88006591796875, "std": 0.0}, "Timing/maintenance_sec": {"num": 1, "mean": 0.16547513008117676, "std": 0.0}, "Resources/cpu_mem_gb": {"num": 1, "mean": 5.382976531982422, "std": 0.0}, "Resources/peak_gpu_mem_gb": {"num": 1, "mean": 10.561566352844238, "std": 0.0}, "Resources/peak_gpu_mem_reserved_gb": {"num": 1, "mean": 13.216796875, "std": 0.0}, "Progress/augment": {"num": 1, "mean": 0.013024013489484787, "std": 0.0}, "Timing/total_hours": {"num": 1, "mean": 2.71549391746521, "std": 0.0}, "Timing/total_days": {"num": 1, "mean": 0.11314558237791061, "std": 0.0}, "Timing/Gboth": {"num": 1, "mean": 1060.421630859375, "std": 0.0}, "Timing/Dmain": {"num": 1, "mean": 841.8560180664062, "std": 0.0}, "Timing/Dreg": {"num": 1, "mean": 453.0411376953125, "std": 0.0}, "timestamp": 1636996807.5139344}
{"Loss/scores/fake": {"num": 8000, "mean": -2.1790065169055013, "std": 1.970949327235677}, "Loss/signs/fake": {"num": 8000, "mean": -0.7995, "std": 0.6006660886049753}, "Loss/G/loss": {"num": 4000, "mean": 2.63478009211272, "std": 1.984672284204866}, "Loss/scores/real": {"num": 4252, "mean": 2.199940407867714, "std": 2.0083769702111227}, "Loss/signs/real": {"num": 4252, "mean": 0.7210724365004704, "std": 0.6928596837161729}, "Loss/D/loss": {"num": 4000, "mean": 0.6428065436957404, "std": 0.7169350439724437}, "Loss/r1_penalty": {"num": 252, "mean": 0.01483740303147998, "std": 0.013358417328172455}, "Loss/D/reg": {"num": 252, "mean": 0.06083335139093891, "std": 0.0547695090566276}, "Progress/tick": {"num": 1, "mean": 4.0, "std": 0.0}, "Progress/kimg": {"num": 1, "mean": 16.003999710083008, "std": 0.0}, "Timing/total_sec": {"num": 1, "mean": 11713.7197265625, "std": 0.0}, "Timing/sec_per_tick": {"num": 1, "mean": 1937.7994384765625, "std": 0.0}, "Timing/sec_per_kimg": {"num": 1, "mean": 484.4498596191406, "std": 0.0}, "Timing/maintenance_sec": {"num": 1, "mean": 0.14179372787475586, "std": 0.0}, "Resources/cpu_mem_gb": {"num": 1, "mean": 5.382984161376953, "std": 0.0}, "Resources/peak_gpu_mem_gb": {"num": 1, "mean": 10.66415023803711, "std": 0.0}, "Resources/peak_gpu_mem_reserved_gb": {"num": 1, "mean": 13.216796875, "std": 0.0}, "Progress/augment": {"num": 1, "mean": 0.01683204248547554, "std": 0.0}, "Timing/total_hours": {"num": 1, "mean": 3.2538108825683594, "std": 0.0}, "Timing/total_days": {"num": 1, "mean": 0.13557545840740204, "std": 0.0}, "Timing/Gboth": {"num": 1, "mean": 1064.42041015625, "std": 0.0}, "Timing/Dmain": {"num": 1, "mean": 841.5272827148438, "std": 0.0}, "Timing/Dreg": {"num": 1, "mean": 445.44818115234375, "std": 0.0}, "timestamp": 1636998745.476204}
{"Loss/scores/fake": {"num": 8000, "mean": -1.9942627283409238, "std": 1.5608806840318692}, "Loss/signs/fake": {"num": 8000, "mean": -0.80475, "std": 0.5936138791335661}, "Loss/G/loss": {"num": 4000, "mean": 2.453185194641352, "std": 1.256834576559852}, "Loss/scores/real": {"num": 4248, "mean": 2.0115156066297026, "std": 1.917292083923428}, "Loss/signs/real": {"num": 4248, "mean": 0.711864406779661, "std": 0.7023169272915479}, "Loss/D/loss": {"num": 4000, "mean": 0.6789864783268422, "std": 0.6911124173124575}, "Loss/r1_penalty": {"num": 248, "mean": 0.017240278224269257, "std": 0.01535044935766243}, "Loss/D/reg": {"num": 248, "mean": 0.07068513913808631, "std": 0.06293684173699195}, "Progress/tick": {"num": 1, "mean": 5.0, "std": 0.0}, "Progress/kimg": {"num": 1, "mean": 20.003999710083008, "std": 0.0}, "Timing/total_sec": {"num": 1, "mean": 13637.9189453125, "std": 0.0}, "Timing/sec_per_tick": {"num": 1, "mean": 1924.0369873046875, "std": 0.0}, "Timing/sec_per_kimg": {"num": 1, "mean": 481.0092468261719, "std": 0.0}, "Timing/maintenance_sec": {"num": 1, "mean": 0.16286802291870117, "std": 0.0}, "Resources/cpu_mem_gb": {"num": 1, "mean": 5.383003234863281, "std": 0.0}, "Resources/peak_gpu_mem_gb": {"num": 1, "mean": 10.585174560546875, "std": 0.0}, "Resources/peak_gpu_mem_reserved_gb": {"num": 1, "mean": 13.21875, "std": 0.0}, "Progress/augment": {"num": 1, "mean": 0.021056074649095535, "std": 0.0}, "Timing/total_hours": {"num": 1, "mean": 3.788311004638672, "std": 0.0}, "Timing/total_days": {"num": 1, "mean": 0.15784628689289093, "std": 0.0}, "Timing/Gboth": {"num": 1, "mean": 1057.5472412109375, "std": 0.0}, "Timing/Dmain": {"num": 1, "mean": 835.7857055664062, "std": 0.0}, "Timing/Dreg": {"num": 1, "mean": 441.8385925292969, "std": 0.0}, "timestamp": 1637000669.6548762}
{"Loss/scores/fake": {"num": 8000, "mean": -1.9199625620413572, "std": 1.5234585307672128}, "Loss/signs/fake": {"num": 8000, "mean": -0.79125, "std": 0.6114927943156813}, "Loss/G/loss": {"num": 4000, "mean": 2.4174509982317685, "std": 1.2202134811874379}, "Loss/scores/real": {"num": 4252, "mean": 1.8736823337084263, "std": 1.914695806281492}, "Loss/signs/real": {"num": 4252, "mean": 0.680620884289746, "std": 0.7326357975615472}, "Loss/D/loss": {"num": 4000, "mean": 0.709376773731783, "std": 0.6527582429221885}, "Loss/r1_penalty": {"num": 252, "mean": 0.018204042821058204, "std": 0.014687794525979004}, "Loss/D/reg": {"num": 252, "mean": 0.07463657385891392, "std": 0.06021995569858101}, "Progress/tick": {"num": 1, "mean": 6.0, "std": 0.0}, "Progress/kimg": {"num": 1, "mean": 24.003999710083008, "std": 0.0}, "Timing/total_sec": {"num": 1, "mean": 15556.1396484375, "std": 0.0}, "Timing/sec_per_tick": {"num": 1, "mean": 1918.078369140625, "std": 0.0}, "Timing/sec_per_kimg": {"num": 1, "mean": 479.51959228515625, "std": 0.0}, "Timing/maintenance_sec": {"num": 1, "mean": 0.14150142669677734, "std": 0.0}, "Resources/cpu_mem_gb": {"num": 1, "mean": 5.3830108642578125, "std": 0.0}, "Resources/peak_gpu_mem_gb": {"num": 1, "mean": 10.610014915466309, "std": 0.0}, "Resources/peak_gpu_mem_reserved_gb": {"num": 1, "mean": 13.21875, "std": 0.0}, "Progress/augment": {"num": 1, "mean": 0.024896103888750076, "std": 0.0}, "Timing/total_hours": {"num": 1, "mean": 4.321149826049805, "std": 0.0}, "Timing/total_days": {"num": 1, "mean": 0.1800479143857956, "std": 0.0}, "Timing/Gboth": {"num": 1, "mean": 1054.1434326171875, "std": 0.0}, "Timing/Dmain": {"num": 1, "mean": 839.2212524414062, "std": 0.0}, "Timing/Dreg": {"num": 1, "mean": 442.1744689941406, "std": 0.0}, "timestamp": 1637002587.896693}
{"Loss/scores/fake": {"num": 8000, "mean": -1.9106625787355005, "std": 1.4549912634615212}, "Loss/signs/fake": {"num": 8000, "mean": -0.81075, "std": 0.5853925499184287}, "Loss/G/loss": {"num": 4000, "mean": 2.4216336041241884, "std": 1.151941213170847}, "Loss/scores/real": {"num": 4248, "mean": 1.9703267864995195, "std": 2.0547619444265024}, "Loss/signs/real": {"num": 4248, "mean": 0.6732580037664784, "std": 0.7394076415377221}, "Loss/D/loss": {"num": 4000, "mean": 0.7137520208209753, "std": 0.6740324879400521}, "Loss/r1_penalty": {"num": 248, "mean": 0.016055282682270532, "std": 0.011522082324807935}, "Loss/D/reg": {"num": 248, "mean": 0.06582665713804384, "std": 0.0472405364942599}, "Progress/tick": {"num": 1, "mean": 7.0, "std": 0.0}, "Progress/kimg": {"num": 1, "mean": 28.003999710083008, "std": 0.0}, "Timing/total_sec": {"num": 1, "mean": 17483.38671875, "std": 0.0}, "Timing/sec_per_tick": {"num": 1, "mean": 1927.0838623046875, "std": 0.0}, "Timing/sec_per_kimg": {"num": 1, "mean": 481.7709655761719, "std": 0.0}, "Timing/maintenance_sec": {"num": 1, "mean": 0.16386103630065918, "std": 0.0}, "Resources/cpu_mem_gb": {"num": 1, "mean": 5.383186340332031, "std": 0.0}, "Resources/peak_gpu_mem_gb": {"num": 1, "mean": 10.588229179382324, "std": 0.0}, "Resources/peak_gpu_mem_reserved_gb": {"num": 1, "mean": 13.21875, "std": 0.0}, "Progress/augment": {"num": 1, "mean": 0.02793612703680992, "std": 0.0}, "Timing/total_hours": {"num": 1, "mean": 4.856496334075928, "std": 0.0}, "Timing/total_days": {"num": 1, "mean": 0.20235401391983032, "std": 0.0}, "Timing/Gboth": {"num": 1, "mean": 1060.0509033203125, "std": 0.0}, "Timing/Dmain": {"num": 1, "mean": 838.656005859375, "std": 0.0}, "Timing/Dreg": {"num": 1, "mean": 441.38189697265625, "std": 0.0}, "timestamp": 1637004515.123053}
{"Loss/scores/fake": {"num": 8000, "mean": -2.0629940188433973, "std": 1.5628466222729511}, "Loss/signs/fake": {"num": 8000, "mean": -0.8265, "std": 0.5629367193566254}, "Loss/G/loss": {"num": 4000, "mean": 2.594568415457383, "std": 1.2774660754675433}, "Loss/scores/real": {"num": 4252, "mean": 2.1339533934448536, "std": 2.158322837625551}, "Loss/signs/real": {"num": 4252, "mean": 0.687206020696143, "std": 0.7264625834266843}, "Loss/D/loss": {"num": 4000, "mean": 0.691757718693465, "std": 0.7177459590672306}, "Loss/r1_penalty": {"num": 252, "mean": 0.014992921687071286, "std": 0.012726261919643779}, "Loss/D/reg": {"num": 252, "mean": 0.06147097808028024, "std": 0.05217767188801844}, "Progress/tick": {"num": 1, "mean": 8.0, "std": 0.0}, "Progress/kimg": {"num": 1, "mean": 32.00400161743164, "std": 0.0}, "Timing/total_sec": {"num": 1, "mean": 19401.8984375, "std": 0.0}, "Timing/sec_per_tick": {"num": 1, "mean": 1918.368896484375, "std": 0.0}, "Timing/sec_per_kimg": {"num": 1, "mean": 479.59222412109375, "std": 0.0}, "Timing/maintenance_sec": {"num": 1, "mean": 0.1421060562133789, "std": 0.0}, "Resources/cpu_mem_gb": {"num": 1, "mean": 5.383216857910156, "std": 0.0}, "Resources/peak_gpu_mem_gb": {"num": 1, "mean": 10.50870132446289, "std": 0.0}, "Resources/peak_gpu_mem_reserved_gb": {"num": 1, "mean": 13.21875, "std": 0.0}, "Progress/augment": {"num": 1, "mean": 0.03184015676379204, "std": 0.0}, "Timing/total_hours": {"num": 1, "mean": 5.389416217803955, "std": 0.0}, "Timing/total_days": {"num": 1, "mean": 0.2245590090751648, "std": 0.0}, "Timing/Gboth": {"num": 1, "mean": 1057.4581298828125, "std": 0.0}, "Timing/Dmain": {"num": 1, "mean": 834.9368286132812, "std": 0.0}, "Timing/Dreg": {"num": 1, "mean": 438.2402648925781, "std": 0.0}, "timestamp": 1637006433.6535335}
{"Loss/scores/fake": {"num": 8000, "mean": -2.0280292105097324, "std": 1.5028572650669758}, "Loss/signs/fake": {"num": 8000, "mean": -0.814, "std": 0.5808648724100985}, "Loss/G/loss": {"num": 4000, "mean": 2.499335194244981, "std": 1.2107852123784146}, "Loss/scores/real": {"num": 4248, "mean": 2.1160207149588457, "std": 2.0605774014314635}, "Loss/signs/real": {"num": 4248, "mean": 0.6902071563088512, "std": 0.7236118305970743}, "Loss/D/loss": {"num": 4000, "mean": 0.6677665104530752, "std": 0.6500455836121178}, "Loss/r1_penalty": {"num": 248, "mean": 0.016147807961510073, "std": 0.012664579404713607}, "Loss/D/reg": {"num": 248, "mean": 0.06620601092975947, "std": 0.051924775751298405}, "Progress/tick": {"num": 1, "mean": 9.0, "std": 0.0}, "Progress/kimg": {"num": 1, "mean": 36.00400161743164, "std": 0.0}, "Timing/total_sec": {"num": 1, "mean": 21317.7890625, "std": 0.0}, "Timing/sec_per_tick": {"num": 1, "mean": 1915.728759765625, "std": 0.0}, "Timing/sec_per_kimg": {"num": 1, "mean": 478.93218994140625, "std": 0.0}, "Timing/maintenance_sec": {"num": 1, "mean": 0.16196179389953613, "std": 0.0}, "Resources/cpu_mem_gb": {"num": 1, "mean": 5.383220672607422, "std": 0.0}, "Resources/peak_gpu_mem_gb": {"num": 1, "mean": 10.566415786743164, "std": 0.0}, "Resources/peak_gpu_mem_reserved_gb": {"num": 1, "mean": 13.21875, "std": 0.0}, "Progress/augment": {"num": 1, "mean": 0.035616185516119, "std": 0.0}, "Timing/total_hours": {"num": 1, "mean": 5.921607971191406, "std": 0.0}, "Timing/total_days": {"num": 1, "mean": 0.2467336654663086, "std": 0.0}, "Timing/Gboth": {"num": 1, "mean": 1058.9705810546875, "std": 0.0}, "Timing/Dmain": {"num": 1, "mean": 836.9520874023438, "std": 0.0}, "Timing/Dreg": {"num": 1, "mean": 443.8446044921875, "std": 0.0}, "timestamp": 1637008349.523665}
{"Loss/scores/fake": {"num": 8000, "mean": -2.0692400341928003, "std": 1.6040333209422386}, "Loss/signs/fake": {"num": 8000, "mean": -0.81, "std": 0.5864298764558299}, "Loss/G/loss": {"num": 4000, "mean": 2.5379224221855403, "std": 1.3287023332499504}, "Loss/scores/real": {"num": 4252, "mean": 2.1027398601398644, "std": 2.006402023606562}, "Loss/signs/real": {"num": 4252, "mean": 0.7046095954844779, "std": 0.7095951789233073}, "Loss/D/loss": {"num": 4000, "mean": 0.6583344220854342, "std": 0.6624169297358061}, "Loss/r1_penalty": {"num": 252, "mean": 0.01709375118777629, "std": 0.01405600095782165}, "Loss/D/reg": {"num": 252, "mean": 0.07008437787197412, "std": 0.05762960248204604}, "Progress/tick": {"num": 1, "mean": 10.0, "std": 0.0}, "Progress/kimg": {"num": 1, "mean": 40.00400161743164, "std": 0.0}, "Timing/total_sec": {"num": 1, "mean": 23246.728515625, "std": 0.0}, "Timing/sec_per_tick": {"num": 1, "mean": 1928.7989501953125, "std": 0.0}, "Timing/sec_per_kimg": {"num": 1, "mean": 482.1997375488281, "std": 0.0}, "Timing/maintenance_sec": {"num": 1, "mean": 0.14118194580078125, "std": 0.0}, "Resources/cpu_mem_gb": {"num": 1, "mean": 5.366649627685547, "std": 0.0}, "Resources/peak_gpu_mem_gb": {"num": 1, "mean": 10.597269058227539, "std": 0.0}, "Resources/peak_gpu_mem_reserved_gb": {"num": 1, "mean": 13.21875, "std": 0.0}, "Progress/augment": {"num": 1, "mean": 0.03993621841073036, "std": 0.0}, "Timing/total_hours": {"num": 1, "mean": 6.457424640655518, "std": 0.0}, "Timing/total_days": {"num": 1, "mean": 0.26905936002731323, "std": 0.0}, "Timing/Gboth": {"num": 1, "mean": 1065.4361572265625, "std": 0.0}, "Timing/Dmain": {"num": 1, "mean": 837.4343872070312, "std": 0.0}, "Timing/Dreg": {"num": 1, "mean": 444.1098327636719, "std": 0.0}, "timestamp": 1637010278.487701}
{"Loss/scores/fake": {"num": 8000, "mean": -1.8857661170009523, "std": 1.486417373916979}, "Loss/signs/fake": {"num": 8000, "mean": -0.79775, "std": 0.6029883394394954}, "Loss/G/loss": {"num": 4000, "mean": 2.3512603043466807, "std": 1.16339522175089}, "Loss/scores/real": {"num": 4248, "mean": 1.9013141925936028, "std": 1.8514549759568697}, "Loss/signs/real": {"num": 4248, "mean": 0.6939736346516008, "std": 0.7200004127835251}, "Loss/D/loss": {"num": 4000, "mean": 0.6969978115409613, "std": 0.6655695615751803}, "Loss/r1_penalty": {"num": 248, "mean": 0.017979735268219825, "std": 0.012786941806464055}, "Loss/D/reg": {"num": 248, "mean": 0.07371691288426518, "std": 0.0524264591554991}, "Progress/tick": {"num": 1, "mean": 11.0, "std": 0.0}, "Progress/kimg": {"num": 1, "mean": 44.00400161743164, "std": 0.0}, "Timing/total_sec": {"num": 1, "mean": 25168.201171875, "std": 0.0}, "Timing/sec_per_tick": {"num": 1, "mean": 1921.308349609375, "std": 0.0}, "Timing/sec_per_kimg": {"num": 1, "mean": 480.32708740234375, "std": 0.0}, "Timing/maintenance_sec": {"num": 1, "mean": 0.16501379013061523, "std": 0.0}, "Resources/cpu_mem_gb": {"num": 1, "mean": 4.954200744628906, "std": 0.0}, "Resources/peak_gpu_mem_gb": {"num": 1, "mean": 10.484601974487305, "std": 0.0}, "Resources/peak_gpu_mem_reserved_gb": {"num": 1, "mean": 13.21875, "std": 0.0}, "Progress/augment": {"num": 1, "mean": 0.043744247406721115, "std": 0.0}, "Timing/total_hours": {"num": 1, "mean": 6.991167068481445, "std": 0.0}, "Timing/total_days": {"num": 1, "mean": 0.29129862785339355, "std": 0.0}, "Timing/Gboth": {"num": 1, "mean": 1054.487548828125, "std": 0.0}, "Timing/Dmain": {"num": 1, "mean": 833.9353637695312, "std": 0.0}, "Timing/Dreg": {"num": 1, "mean": 439.6871643066406, "std": 0.0}, "timestamp": 1637012199.9440153}
{"Loss/scores/fake": {"num": 8000, "mean": -1.6530406183917075, "std": 1.4108670228671418}, "Loss/signs/fake": {"num": 8000, "mean": -0.7765, "std": 0.6301172509938131}, "Loss/G/loss": {"num": 4000, "mean": 2.152227965697646, "std": 1.0899442021832002}, "Loss/scores/real": {"num": 4252, "mean": 1.457074090372333, "std": 1.53174740795028}, "Loss/signs/real": {"num": 4252, "mean": 0.660865475070555, "std": 0.7505043796406318}, "Loss/D/loss": {"num": 4000, "mean": 0.7795404609031975, "std": 0.6139203925846973}, "Loss/r1_penalty": {"num": 252, "mean": 0.01986508170837566, "std": 0.018294945683176505}, "Loss/D/reg": {"num": 252, "mean": 0.08144683352420254, "std": 0.07500927409361925}, "Progress/tick": {"num": 1, "mean": 12.0, "std": 0.0}, "Progress/kimg": {"num": 1, "mean": 48.00400161743164, "std": 0.0}, "Timing/total_sec": {"num": 1, "mean": 27084.802734375, "std": 0.0}, "Timing/sec_per_tick": {"num": 1, "mean": 1916.4371337890625, "std": 0.0}, "Timing/sec_per_kimg": {"num": 1, "mean": 479.1092834472656, "std": 0.0}, "Timing/maintenance_sec": {"num": 1, "mean": 0.1629798412322998, "std": 0.0}, "Resources/cpu_mem_gb": {"num": 1, "mean": 4.948284149169922, "std": 0.0}, "Resources/peak_gpu_mem_gb": {"num": 1, "mean": 10.534669876098633, "std": 0.0}, "Resources/peak_gpu_mem_reserved_gb": {"num": 1, "mean": 13.21875, "std": 0.0}, "Progress/augment": {"num": 1, "mean": 0.04630426689982414, "std": 0.0}, "Timing/total_hours": {"num": 1, "mean": 7.523556232452393, "std": 0.0}, "Timing/total_days": {"num": 1, "mean": 0.31348150968551636, "std": 0.0}, "Timing/Gboth": {"num": 1, "mean": 1050.40380859375, "std": 0.0}, "Timing/Dmain": {"num": 1, "mean": 831.9385375976562, "std": 0.0}, "Timing/Dreg": {"num": 1, "mean": 443.32647705078125, "std": 0.0}, "timestamp": 1637014116.55957}
{"Loss/scores/fake": {"num": 8000, "mean": -1.7719005369395018, "std": 1.497503358542858}, "Loss/signs/fake": {"num": 8000, "mean": -0.7665, "std": 0.6422443070981635}, "Loss/G/loss": {"num": 4000, "mean": 2.2210059137418865, "std": 1.1979063423996577}, "Loss/scores/real": {"num": 4248, "mean": 1.7049096565686601, "std": 1.6845031258927439}, "Loss/signs/real": {"num": 4248, "mean": 0.6986817325800376, "std": 0.7154326219560839}, "Loss/D/loss": {"num": 4000, "mean": 0.7055420561712236, "std": 0.5882488010293856}, "Loss/r1_penalty": {"num": 248, "mean": 0.023166093607282928, "std": 0.01941118636752207}, "Loss/D/reg": {"num": 248, "mean": 0.0949809817417014, "std": 0.07958586131723645}, "Progress/tick": {"num": 1, "mean": 13.0, "std": 0.0}, "Progress/kimg": {"num": 1, "mean": 52.00400161743164, "std": 0.0}, "Timing/total_sec": {"num": 1, "mean": 29009.4140625, "std": 0.0}, "Timing/sec_per_tick": {"num": 1, "mean": 1924.448974609375, "std": 0.0}, "Timing/sec_per_kimg": {"num": 1, "mean": 481.11224365234375, "std": 0.0}, "Timing/maintenance_sec": {"num": 1, "mean": 0.16379761695861816, "std": 0.0}, "Resources/cpu_mem_gb": {"num": 1, "mean": 4.276981353759766, "std": 0.0}, "Resources/peak_gpu_mem_gb": {"num": 1, "mean": 10.624959945678711, "std": 0.0}, "Resources/peak_gpu_mem_reserved_gb": {"num": 1, "mean": 13.220703125, "std": 0.0}, "Progress/augment": {"num": 1, "mean": 0.05033629760146141, "std": 0.0}, "Timing/total_hours": {"num": 1, "mean": 8.058171272277832, "std": 0.0}, "Timing/total_days": {"num": 1, "mean": 0.3357571065425873, "std": 0.0}, "Timing/Gboth": {"num": 1, "mean": 1061.5460205078125, "std": 0.0}, "Timing/Dmain": {"num": 1, "mean": 835.1365356445312, "std": 0.0}, "Timing/Dreg": {"num": 1, "mean": 443.6070251464844, "std": 0.0}, "timestamp": 1637016041.1634285}
{"Loss/scores/fake": {"num": 8000, "mean": -1.7355709406388924, "std": 1.49276311008373}, "Loss/signs/fake": {"num": 8000, "mean": -0.775, "std": 0.6319612329882268}, "Loss/G/loss": {"num": 4000, "mean": 2.1863370205760004, "std": 1.1700675301664127}, "Loss/scores/real": {"num": 4252, "mean": 1.66968390735625, "std": 1.6316058468268342}, "Loss/signs/real": {"num": 4252, "mean": 0.7041392285983067, "std": 0.7100619316291936}, "Loss/D/loss": {"num": 4000, "mean": 0.7140596319511533, "std": 0.5964947301362545}, "Loss/r1_penalty": {"num": 252, "mean": 0.02276202656572596, "std": 0.018120756040612338}, "Loss/D/reg": {"num": 252, "mean": 0.093324305534008, "std": 0.07429509911147078}, "Progress/tick": {"num": 1, "mean": 14.0, "std": 0.0}, "Progress/kimg": {"num": 1, "mean": 56.00400161743164, "std": 0.0}, "Timing/total_sec": {"num": 1, "mean": 30935.15234375, "std": 0.0}, "Timing/sec_per_tick": {"num": 1, "mean": 1925.4443359375, "std": 0.0}, "Timing/sec_per_kimg": {"num": 1, "mean": 481.361083984375, "std": 0.0}, "Timing/maintenance_sec": {"num": 1, "mean": 0.2922353744506836, "std": 0.0}, "Resources/cpu_mem_gb": {"num": 1, "mean": 4.277400970458984, "std": 0.0}, "Resources/peak_gpu_mem_gb": {"num": 1, "mean": 10.471294403076172, "std": 0.0}, "Resources/peak_gpu_mem_reserved_gb": {"num": 1, "mean": 13.220703125, "std": 0.0}, "Progress/augment": {"num": 1, "mean": 0.0540483258664608, "std": 0.0}, "Timing/total_hours": {"num": 1, "mean": 8.593097686767578, "std": 0.0}, "Timing/total_days": {"num": 1, "mean": 0.3580457270145416, "std": 0.0}, "Timing/Gboth": {"num": 1, "mean": 1051.26806640625, "std": 0.0}, "Timing/Dmain": {"num": 1, "mean": 835.1027221679688, "std": 0.0}, "Timing/Dreg": {"num": 1, "mean": 440.54833984375, "std": 0.0}, "timestamp": 1637017966.907317}
{"Loss/scores/fake": {"num": 8000, "mean": -1.6915023576980457, "std": 1.3789180556941296}, "Loss/signs/fake": {"num": 8000, "mean": -0.78875, "std": 0.6147141103797765}, "Loss/G/loss": {"num": 4000, "mean": 2.1253103312253954, "std": 1.0792834255622699}, "Loss/scores/real": {"num": 4248, "mean": 1.6782477548181056, "std": 1.6410840543229113}, "Loss/signs/real": {"num": 4248, "mean": 0.696798493408663, "std": 0.7172669374670894}, "Loss/D/loss": {"num": 4000, "mean": 0.7094517006613315, "std": 0.6060180188181675}, "Loss/r1_penalty": {"num": 248, "mean": 0.022334172195124048, "std": 0.016406068234488317}, "Loss/D/reg": {"num": 248, "mean": 0.09157010370625122, "std": 0.06726487918839585}, "Progress/tick": {"num": 1, "mean": 15.0, "std": 0.0}, "Progress/kimg": {"num": 1, "mean": 60.00400161743164, "std": 0.0}, "Timing/total_sec": {"num": 1, "mean": 32850.98828125, "std": 0.0}, "Timing/sec_per_tick": {"num": 1, "mean": 1915.673828125, "std": 0.0}, "Timing/sec_per_kimg": {"num": 1, "mean": 478.91845703125, "std": 0.0}, "Timing/maintenance_sec": {"num": 1, "mean": 0.1617898941040039, "std": 0.0}, "Resources/cpu_mem_gb": {"num": 1, "mean": 4.2777252197265625, "std": 0.0}, "Resources/peak_gpu_mem_gb": {"num": 1, "mean": 10.517946243286133, "std": 0.0}, "Resources/peak_gpu_mem_reserved_gb": {"num": 1, "mean": 13.220703125, "std": 0.0}, "Progress/augment": {"num": 1, "mean": 0.05756835266947746, "std": 0.0}, "Timing/total_hours": {"num": 1, "mean": 9.125274658203125, "std": 0.0}, "Timing/total_days": {"num": 1, "mean": 0.3802197575569153, "std": 0.0}, "Timing/Gboth": {"num": 1, "mean": 1051.926513671875, "std": 0.0}, "Timing/Dmain": {"num": 1, "mean": 831.8341064453125, "std": 0.0}, "Timing/Dreg": {"num": 1, "mean": 437.3114929199219, "std": 0.0}, "timestamp": 1637019882.720801}
{"Loss/scores/fake": {"num": 8000, "mean": -1.7732614026553928, "std": 1.3748131842433078}, "Loss/signs/fake": {"num": 8000, "mean": -0.8005, "std": 0.5993327539856302}, "Loss/G/loss": {"num": 4000, "mean": 2.19207566755265, "std": 1.0659295492371141}, "Loss/scores/real": {"num": 4252, "mean": 1.763639231399052, "std": 1.6794585184711674}, "Loss/signs/real": {"num": 4252, "mean": 0.7055503292568204, "std": 0.7086598146399952}, "Loss/D/loss": {"num": 4000, "mean": 0.6686990001145751, "std": 0.5680807297130124}, "Loss/r1_penalty": {"num": 252, "mean": 0.0247440996417214, "std": 0.022294210502661057}, "Loss/D/reg": {"num": 252, "mean": 0.10145080630623159, "std": 0.0914062617685529}, "Progress/tick": {"num": 1, "mean": 16.0, "std": 0.0}, "Progress/kimg": {"num": 1, "mean": 64.00399780273438, "std": 0.0}, "Timing/total_sec": {"num": 1, "mean": 34769.79296875, "std": 0.0}, "Timing/sec_per_tick": {"num": 1, "mean": 1918.66650390625, "std": 0.0}, "Timing/sec_per_kimg": {"num": 1, "mean": 479.6666259765625, "std": 0.0}, "Timing/maintenance_sec": {"num": 1, "mean": 0.13953280448913574, "std": 0.0}, "Resources/cpu_mem_gb": {"num": 1, "mean": 4.2780609130859375, "std": 0.0}, "Resources/peak_gpu_mem_gb": {"num": 1, "mean": 10.626738548278809, "std": 0.0}, "Resources/peak_gpu_mem_reserved_gb": {"num": 1, "mean": 13.220703125, "std": 0.0}, "Progress/augment": {"num": 1, "mean": 0.06179238483309746, "std": 0.0}, "Timing/total_hours": {"num": 1, "mean": 9.658275604248047, "std": 0.0}, "Timing/total_days": {"num": 1, "mean": 0.40242815017700195, "std": 0.0}, "Timing/Gboth": {"num": 1, "mean": 1061.127197265625, "std": 0.0}, "Timing/Dmain": {"num": 1, "mean": 835.5512084960938, "std": 0.0}, "Timing/Dreg": {"num": 1, "mean": 442.208251953125, "std": 0.0}, "timestamp": 1637021801.550117}
{"Loss/scores/fake": {"num": 8000, "mean": -1.811216005127877, "std": 1.3495070365549244}, "Loss/signs/fake": {"num": 8000, "mean": -0.809, "std": 0.587808642331839}, "Loss/G/loss": {"num": 4000, "mean": 2.2157704237699507, "std": 1.0629898921106382}, "Loss/scores/real": {"num": 4248, "mean": 1.8594718492973996, "std": 1.7604212691258876}, "Loss/signs/real": {"num": 4248, "mean": 0.7109227871939736, "std": 0.7032700694956043}, "Loss/D/loss": {"num": 4000, "mean": 0.6448327387720346, "std": 0.5418045272885775}, "Loss/r1_penalty": {"num": 248, "mean": 0.02598629028521358, "std": 0.018767174994850644}, "Loss/D/reg": {"num": 248, "mean": 0.1065437880254561, "std": 0.07694541638159665}, "Progress/tick": {"num": 1, "mean": 17.0, "std": 0.0}, "Progress/kimg": {"num": 1, "mean": 68.00399780273438, "std": 0.0}, "Timing/total_sec": {"num": 1, "mean": 36696.96875, "std": 0.0}, "Timing/sec_per_tick": {"num": 1, "mean": 1927.01123046875, "std": 0.0}, "Timing/sec_per_kimg": {"num": 1, "mean": 481.7528076171875, "std": 0.0}, "Timing/maintenance_sec": {"num": 1, "mean": 0.16280603408813477, "std": 0.0}, "Resources/cpu_mem_gb": {"num": 1, "mean": 4.278404235839844, "std": 0.0}, "Resources/peak_gpu_mem_gb": {"num": 1, "mean": 10.62377643585205, "std": 0.0}, "Resources/peak_gpu_mem_reserved_gb": {"num": 1, "mean": 13.220703125, "std": 0.0}, "Progress/augment": {"num": 1, "mean": 0.06601641327142715, "std": 0.0}, "Timing/total_hours": {"num": 1, "mean": 10.193601608276367, "std": 0.0}, "Timing/total_days": {"num": 1, "mean": 0.424733430147171, "std": 0.0}, "Timing/Gboth": {"num": 1, "mean": 1062.382568359375, "std": 0.0}, "Timing/Dmain": {"num": 1, "mean": 837.20703125, "std": 0.0}, "Timing/Dreg": {"num": 1, "mean": 441.7925109863281, "std": 0.0}, "timestamp": 1637023728.7032034}
{"Loss/scores/fake": {"num": 8000, "mean": -1.8933514159955085, "std": 1.3891215038880012}, "Loss/signs/fake": {"num": 8000, "mean": -0.81825, "std": 0.5748625379166744}, "Loss/G/loss": {"num": 4000, "mean": 2.272201398268342, "std": 1.1113983870266297}, "Loss/scores/real": {"num": 4252, "mean": 1.955234529550414, "std": 1.7313900731721554}, "Loss/signs/real": {"num": 4252, "mean": 0.7394167450611477, "std": 0.6732480056585223}, "Loss/D/loss": {"num": 4000, "mean": 0.6082334620058536, "std": 0.5346233453284972}, "Loss/r1_penalty": {"num": 252, "mean": 0.02784070056597037, "std": 0.021813976565236416}, "Loss/D/reg": {"num": 252, "mean": 0.11414687075312176, "std": 0.08943730023702416}, "Progress/tick": {"num": 1, "mean": 18.0, "std": 0.0}, "Progress/kimg": {"num": 1, "mean": 72.00399780273438, "std": 0.0}, "Timing/total_sec": {"num": 1, "mean": 38617.55078125, "std": 0.0}, "Timing/sec_per_tick": {"num": 1, "mean": 1920.4417724609375, "std": 0.0}, "Timing/sec_per_kimg": {"num": 1, "mean": 480.1104431152344, "std": 0.0}, "Timing/maintenance_sec": {"num": 1, "mean": 0.1419062614440918, "std": 0.0}, "Resources/cpu_mem_gb": {"num": 1, "mean": 4.278766632080078, "std": 0.0}, "Resources/peak_gpu_mem_gb": {"num": 1, "mean": 10.678933143615723, "std": 0.0}, "Resources/peak_gpu_mem_reserved_gb": {"num": 1, "mean": 13.22265625, "std": 0.0}, "Progress/augment": {"num": 1, "mean": 0.07110445201396942, "std": 0.0}, "Timing/total_hours": {"num": 1, "mean": 10.727097511291504, "std": 0.0}, "Timing/total_days": {"num": 1, "mean": 0.4469623863697052, "std": 0.0}, "Timing/Gboth": {"num": 1, "mean": 1045.99853515625, "std": 0.0}, "Timing/Dmain": {"num": 1, "mean": 829.2249755859375, "std": 0.0}, "Timing/Dreg": {"num": 1, "mean": 447.4449768066406, "std": 0.0}, "timestamp": 1637025649.3121676}
{"Loss/scores/fake": {"num": 8000, "mean": -1.8939524339586495, "std": 1.4361321255938895}, "Loss/signs/fake": {"num": 8000, "mean": -0.81825, "std": 0.5748625379166744}, "Loss/G/loss": {"num": 4000, "mean": 2.2989696839228273, "std": 1.1648774800785282}, "Loss/scores/real": {"num": 4248, "mean": 1.919945265631246, "std": 1.734352772789237}, "Loss/signs/real": {"num": 4248, "mean": 0.7349340866290018, "std": 0.6781385465454642}, "Loss/D/loss": {"num": 4000, "mean": 0.6265941363722086, "std": 0.56866661902371}, "Loss/r1_penalty": {"num": 248, "mean": 0.02524936893173764, "std": 0.020897496408924462}, "Loss/D/reg": {"num": 248, "mean": 0.1035224118179852, "std": 0.08567973172900122}, "Progress/tick": {"num": 1, "mean": 19.0, "std": 0.0}, "Progress/kimg": {"num": 1, "mean": 76.00399780273438, "std": 0.0}, "Timing/total_sec": {"num": 1, "mean": 40531.21875, "std": 0.0}, "Timing/sec_per_tick": {"num": 1, "mean": 1913.4993896484375, "std": 0.0}, "Timing/sec_per_kimg": {"num": 1, "mean": 478.3748474121094, "std": 0.0}, "Timing/maintenance_sec": {"num": 1, "mean": 0.16805481910705566, "std": 0.0}, "Resources/cpu_mem_gb": {"num": 1, "mean": 4.279125213623047, "std": 0.0}, "Resources/peak_gpu_mem_gb": {"num": 1, "mean": 10.670632362365723, "std": 0.0}, "Resources/peak_gpu_mem_reserved_gb": {"num": 1, "mean": 13.22265625, "std": 0.0}, "Progress/augment": {"num": 1, "mean": 0.07523248344659805, "std": 0.0}, "Timing/total_hours": {"num": 1, "mean": 11.258671760559082, "std": 0.0}, "Timing/total_days": {"num": 1, "mean": 0.4691113233566284, "std": 0.0}, "Timing/Gboth": {"num": 1, "mean": 1047.09326171875, "std": 0.0}, "Timing/Dmain": {"num": 1, "mean": 831.5269165039062, "std": 0.0}, "Timing/Dreg": {"num": 1, "mean": 451.3710021972656, "std": 0.0}, "timestamp": 1637027562.9531422}
{"Loss/scores/fake": {"num": 8000, "mean": -1.8664303499031811, "std": 1.4017634028338408}, "Loss/signs/fake": {"num": 8000, "mean": -0.80875, "std": 0.5881525631160678}, "Loss/G/loss": {"num": 4000, "mean": 2.241122791111469, "std": 1.1257350364096608}, "Loss/scores/real": {"num": 4252, "mean": 1.894901127345082, "std": 1.633138140052854}, "Loss/signs/real": {"num": 4252, "mean": 0.7427093132643462, "std": 0.6696139753547586}, "Loss/D/loss": {"num": 4000, "mean": 0.6139135809727013, "std": 0.5402048966032923}, "Loss/r1_penalty": {"num": 252, "mean": 0.026943625335300727, "std": 0.021440313510820444}, "Loss/D/reg": {"num": 252, "mean": 0.11046886036083811, "std": 0.08790528418140865}, "Progress/tick": {"num": 1, "mean": 20.0, "std": 0.0}, "Progress/kimg": {"num": 1, "mean": 80.00399780273438, "std": 0.0}, "Timing/total_sec": {"num": 1, "mean": 42454.33984375, "std": 0.0}, "Timing/sec_per_tick": {"num": 1, "mean": 1922.979248046875, "std": 0.0}, "Timing/sec_per_kimg": {"num": 1, "mean": 480.74481201171875, "std": 0.0}, "Timing/maintenance_sec": {"num": 1, "mean": 0.14088129997253418, "std": 0.0}, "Resources/cpu_mem_gb": {"num": 1, "mean": 4.279502868652344, "std": 0.0}, "Resources/peak_gpu_mem_gb": {"num": 1, "mean": 10.691291809082031, "std": 0.0}, "Resources/peak_gpu_mem_reserved_gb": {"num": 1, "mean": 13.22265625, "std": 0.0}, "Progress/augment": {"num": 1, "mean": 0.08016052097082138, "std": 0.0}, "Timing/total_hours": {"num": 1, "mean": 11.792871475219727, "std": 0.0}, "Timing/total_days": {"num": 1, "mean": 0.49136966466903687, "std": 0.0}, "Timing/Gboth": {"num": 1, "mean": 1058.1513671875, "std": 0.0}, "Timing/Dmain": {"num": 1, "mean": 838.1737060546875, "std": 0.0}, "Timing/Dreg": {"num": 1, "mean": 441.9174499511719, "std": 0.0}, "timestamp": 1637029486.095981}
{"Loss/scores/fake": {"num": 8000, "mean": -1.7232331390529871, "std": 1.3250217892829683}, "Loss/signs/fake": {"num": 8000, "mean": -0.8085, "std": 0.5884961767080565}, "Loss/G/loss": {"num": 4000, "mean": 2.1089526091106237, "std": 1.0400471534293327}, "Loss/scores/real": {"num": 4248, "mean": 1.7806992602311846, "std": 1.6148515875327338}, "Loss/signs/real": {"num": 4248, "mean": 0.7245762711864406, "std": 0.6891946221739935}, "Loss/D/loss": {"num": 4000, "mean": 0.6433859967067838, "std": 0.5300513310598233}, "Loss/r1_penalty": {"num": 248, "mean": 0.02838926261381036, "std": 0.024925473044150433}, "Loss/D/reg": {"num": 248, "mean": 0.11639597302963657, "std": 0.1021944370726822}, "Progress/tick": {"num": 1, "mean": 21.0, "std": 0.0}, "Progress/kimg": {"num": 1, "mean": 84.00399780273438, "std": 0.0}, "Timing/total_sec": {"num": 1, "mean": 44382.53515625, "std": 0.0}, "Timing/sec_per_tick": {"num": 1, "mean": 1928.0322265625, "std": 0.0}, "Timing/sec_per_kimg": {"num": 1, "mean": 482.008056640625, "std": 0.0}, "Timing/maintenance_sec": {"num": 1, "mean": 0.1635129451751709, "std": 0.0}, "Resources/cpu_mem_gb": {"num": 1, "mean": 4.2799072265625, "std": 0.0}, "Resources/peak_gpu_mem_gb": {"num": 1, "mean": 10.667302131652832, "std": 0.0}, "Resources/peak_gpu_mem_reserved_gb": {"num": 1, "mean": 13.224609375, "std": 0.0}, "Progress/augment": {"num": 1, "mean": 0.08464055508375168, "std": 0.0}, "Timing/total_hours": {"num": 1, "mean": 12.328481674194336, "std": 0.0}, "Timing/total_days": {"num": 1, "mean": 0.5136867165565491, "std": 0.0}, "Timing/Gboth": {"num": 1, "mean": 1064.0609130859375, "std": 0.0}, "Timing/Dmain": {"num": 1, "mean": 837.275634765625, "std": 0.0}, "Timing/Dreg": {"num": 1, "mean": 449.5144958496094, "std": 0.0}, "timestamp": 1637031414.2697268}
{"Loss/scores/fake": {"num": 8000, "mean": -1.65896046156995, "std": 1.310308180691576}, "Loss/signs/fake": {"num": 8000, "mean": -0.79925, "std": 0.6009987000817888}, "Loss/G/loss": {"num": 4000, "mean": 2.0355045519545674, "std": 1.0222731912056515}, "Loss/scores/real": {"num": 4252, "mean": 1.6957329046594458, "std": 1.6470932062417603}, "Loss/signs/real": {"num": 4252, "mean": 0.7182502351834431, "std": 0.6957848803034804}, "Loss/D/loss": {"num": 4000, "mean": 0.6645746480450034, "std": 0.5232212771803936}, "Loss/r1_penalty": {"num": 252, "mean": 0.03033136133666313, "std": 0.02778863591964116}, "Loss/D/reg": {"num": 252, "mean": 0.12435857895466071, "std": 0.1139334058627304}, "Progress/tick": {"num": 1, "mean": 22.0, "std": 0.0}, "Progress/kimg": {"num": 1, "mean": 88.00399780273438, "std": 0.0}, "Timing/total_sec": {"num": 1, "mean": 46304.16015625, "std": 0.0}, "Timing/sec_per_tick": {"num": 1, "mean": 1921.48486328125, "std": 0.0}, "Timing/sec_per_kimg": {"num": 1, "mean": 480.3712158203125, "std": 0.0}, "Timing/maintenance_sec": {"num": 1, "mean": 0.14143967628479004, "std": 0.0}, "Resources/cpu_mem_gb": {"num": 1, "mean": 4.280326843261719, "std": 0.0}, "Resources/peak_gpu_mem_gb": {"num": 1, "mean": 10.625226974487305, "std": 0.0}, "Resources/peak_gpu_mem_reserved_gb": {"num": 1, "mean": 13.224609375, "std": 0.0}, "Progress/augment": {"num": 1, "mean": 0.08886458724737167, "std": 0.0}, "Timing/total_hours": {"num": 1, "mean": 12.862266540527344, "std": 0.0}, "Timing/total_days": {"num": 1, "mean": 0.5359277725219727, "std": 0.0}, "Timing/Gboth": {"num": 1, "mean": 1056.51611328125, "std": 0.0}, "Timing/Dmain": {"num": 1, "mean": 834.4248046875, "std": 0.0}, "Timing/Dreg": {"num": 1, "mean": 438.8044738769531, "std": 0.0}, "timestamp": 1637033335.9170144}
{"Loss/scores/fake": {"num": 8000, "mean": -1.655233064778149, "std": 1.4065654212651726}, "Loss/signs/fake": {"num": 8000, "mean": -0.7955, "std": 0.6059535873315711}, "Loss/G/loss": {"num": 4000, "mean": 2.050927014440298, "std": 1.2243665451798373}, "Loss/scores/real": {"num": 4248, "mean": 1.7309619521410002, "std": 1.6790003039706936}, "Loss/signs/real": {"num": 4248, "mean": 0.71045197740113, "std": 0.7037456840413476}, "Loss/D/loss": {"num": 4000, "mean": 0.6683513648919761, "std": 0.5089747498646722}, "Loss/r1_penalty": {"num": 248, "mean": 0.028827062988233183, "std": 0.024118579892884504}, "Loss/D/reg": {"num": 248, "mean": 0.11819095452947001, "std": 0.09888617508925411}, "Progress/tick": {"num": 1, "mean": 23.0, "std": 0.0}, "Progress/kimg": {"num": 1, "mean": 92.00399780273438, "std": 0.0}, "Timing/total_sec": {"num": 1, "mean": 48220.17578125, "std": 0.0}, "Timing/sec_per_tick": {"num": 1, "mean": 1915.8525390625, "std": 0.0}, "Timing/sec_per_kimg": {"num": 1, "mean": 478.963134765625, "std": 0.0}, "Timing/maintenance_sec": {"num": 1, "mean": 0.16260933876037598, "std": 0.0}, "Resources/cpu_mem_gb": {"num": 1, "mean": 4.2807464599609375, "std": 0.0}, "Resources/peak_gpu_mem_gb": {"num": 1, "mean": 10.56049633026123, "std": 0.0}, "Resources/peak_gpu_mem_reserved_gb": {"num": 1, "mean": 13.224609375, "std": 0.0}, "Progress/augment": {"num": 1, "mean": 0.09260861575603485, "std": 0.0}, "Timing/total_hours": {"num": 1, "mean": 13.394493103027344, "std": 0.0}, "Timing/total_days": {"num": 1, "mean": 0.5581038594245911, "std": 0.0}, "Timing/Gboth": {"num": 1, "mean": 1048.7562255859375, "std": 0.0}, "Timing/Dmain": {"num": 1, "mean": 830.8480224609375, "std": 0.0}, "Timing/Dreg": {"num": 1, "mean": 444.4999694824219, "std": 0.0}, "timestamp": 1637035251.9110084}
{"Loss/scores/fake": {"num": 8000, "mean": -1.605832613794133, "std": 1.3229798998252036}, "Loss/signs/fake": {"num": 8000, "mean": -0.782, "std": 0.6232784289545082}, "Loss/G/loss": {"num": 4000, "mean": 2.0109528173804283, "std": 1.050323265888932}, "Loss/scores/real": {"num": 4252, "mean": 1.6260570663948275, "std": 1.5961936445300302}, "Loss/signs/real": {"num": 4252, "mean": 0.7149576669802445, "std": 0.6991677441259471}, "Loss/D/loss": {"num": 4000, "mean": 0.6891811227500438, "std": 0.501665284264995}, "Loss/r1_penalty": {"num": 252, "mean": 0.028211697122998654, "std": 0.02257451470149627}, "Loss/D/reg": {"num": 252, "mean": 0.11566795461944171, "std": 0.09255550957653733}, "Progress/tick": {"num": 1, "mean": 24.0, "std": 0.0}, "Progress/kimg": {"num": 1, "mean": 96.00399780273438, "std": 0.0}, "Timing/total_sec": {"num": 1, "mean": 50145.30859375, "std": 0.0}, "Timing/sec_per_tick": {"num": 1, "mean": 1924.9921875, "std": 0.0}, "Timing/sec_per_kimg": {"num": 1, "mean": 481.248046875, "std": 0.0}, "Timing/maintenance_sec": {"num": 1, "mean": 0.14144110679626465, "std": 0.0}, "Resources/cpu_mem_gb": {"num": 1, "mean": 4.281181335449219, "std": 0.0}, "Resources/peak_gpu_mem_gb": {"num": 1, "mean": 10.637651443481445, "std": 0.0}, "Resources/peak_gpu_mem_reserved_gb": {"num": 1, "mean": 13.224609375, "std": 0.0}, "Progress/augment": {"num": 1, "mean": 0.09676864743232727, "std": 0.0}, "Timing/total_hours": {"num": 1, "mean": 13.929252624511719, "std": 0.0}, "Timing/total_days": {"num": 1, "mean": 0.5803855061531067, "std": 0.0}, "Timing/Gboth": {"num": 1, "mean": 1058.945068359375, "std": 0.0}, "Timing/Dmain": {"num": 1, "mean": 838.5361938476562, "std": 0.0}, "Timing/Dreg": {"num": 1, "mean": 442.4233093261719, "std": 0.0}, "timestamp": 1637037177.067092}
{"Loss/scores/fake": {"num": 8000, "mean": -1.4783611878547818, "std": 1.2208508044739492}, "Loss/signs/fake": {"num": 8000, "mean": -0.77275, "std": 0.6347105147230506}, "Loss/G/loss": {"num": 4000, "mean": 1.8844815714731813, "std": 0.9310804005931209}, "Loss/scores/real": {"num": 4248, "mean": 1.5453046407276965, "std": 1.551472821421173}, "Loss/signs/real": {"num": 4248, "mean": 0.678436911487759, "std": 0.7346586670903371}, "Loss/D/loss": {"num": 4000, "mean": 0.7122063774988056, "std": 0.48498511265969063}, "Loss/r1_penalty": {"num": 248, "mean": 0.02984665520489216, "std": 0.023074827531397214}, "Loss/D/reg": {"num": 248, "mean": 0.12237128224824706, "std": 0.0946067914832001}, "Progress/tick": {"num": 1, "mean": 25.0, "std": 0.0}, "Progress/kimg": {"num": 1, "mean": 100.00399780273438, "std": 0.0}, "Timing/total_sec": {"num": 1, "mean": 52073.8203125, "std": 0.0}, "Timing/sec_per_tick": {"num": 1, "mean": 1928.3458251953125, "std": 0.0}, "Timing/sec_per_kimg": {"num": 1, "mean": 482.0864562988281, "std": 0.0}, "Timing/maintenance_sec": {"num": 1, "mean": 0.16362905502319336, "std": 0.0}, "Resources/cpu_mem_gb": {"num": 1, "mean": 4.282848358154297, "std": 0.0}, "Resources/peak_gpu_mem_gb": {"num": 1, "mean": 10.611466407775879, "std": 0.0}, "Resources/peak_gpu_mem_reserved_gb": {"num": 1, "mean": 13.224609375, "std": 0.0}, "Progress/augment": {"num": 1, "mean": 0.0998406708240509, "std": 0.0}, "Timing/total_hours": {"num": 1, "mean": 14.464949607849121, "std": 0.0}, "Timing/total_days": {"num": 1, "mean": 0.602706253528595, "std": 0.0}, "Timing/Gboth": {"num": 1, "mean": 1055.42138671875, "std": 0.0}, "Timing/Dmain": {"num": 1, "mean": 834.212890625, "std": 0.0}, "Timing/Dreg": {"num": 1, "mean": 457.3009948730469, "std": 0.0}, "timestamp": 1637039105.5545352}
{"Loss/scores/fake": {"num": 8000, "mean": -1.423548856852576, "std": 1.236521597814525}, "Loss/signs/fake": {"num": 8000, "mean": -0.76975, "std": 0.6383454687706336}, "Loss/G/loss": {"num": 4000, "mean": 1.8356552229076624, "std": 0.9241310864840778}, "Loss/scores/real": {"num": 4252, "mean": 1.4823695553549034, "std": 1.564525748626565}, "Loss/signs/real": {"num": 4252, "mean": 0.674035747883349, "std": 0.7386987278825748}, "Loss/D/loss": {"num": 4000, "mean": 0.7470091160982847, "std": 0.5448880775597521}, "Loss/r1_penalty": {"num": 252, "mean": 0.027836499092656942, "std": 0.0237342749770074}, "Loss/D/reg": {"num": 252, "mean": 0.11412964193593889, "std": 0.09731052861064576}, "Progress/tick": {"num": 1, "mean": 26.0, "std": 0.0}, "Progress/kimg": {"num": 1, "mean": 104.00399780273438, "std": 0.0}, "Timing/total_sec": {"num": 1, "mean": 53991.53515625, "std": 0.0}, "Timing/sec_per_tick": {"num": 1, "mean": 1917.5748291015625, "std": 0.0}, "Timing/sec_per_kimg": {"num": 1, "mean": 479.3937072753906, "std": 0.0}, "Timing/maintenance_sec": {"num": 1, "mean": 0.14190459251403809, "std": 0.0}, "Resources/cpu_mem_gb": {"num": 1, "mean": 4.283241271972656, "std": 0.0}, "Resources/peak_gpu_mem_gb": {"num": 1, "mean": 10.8742036819458, "std": 0.0}, "Resources/peak_gpu_mem_reserved_gb": {"num": 1, "mean": 13.2265625, "std": 0.0}, "Progress/augment": {"num": 1, "mean": 0.10294469445943832, "std": 0.0}, "Timing/total_hours": {"num": 1, "mean": 14.997649192810059, "std": 0.0}, "Timing/total_days": {"num": 1, "mean": 0.6249020099639893, "std": 0.0}, "Timing/Gboth": {"num": 1, "mean": 1051.4451904296875, "std": 0.0}, "Timing/Dmain": {"num": 1, "mean": 834.861083984375, "std": 0.0}, "Timing/Dreg": {"num": 1, "mean": 437.4087829589844, "std": 0.0}, "timestamp": 1637041023.2908356}
{"Loss/scores/fake": {"num": 8000, "mean": -1.3754370969831944, "std": 1.2244389578356707}, "Loss/signs/fake": {"num": 8000, "mean": -0.75275, "std": 0.6583064920688538}, "Loss/G/loss": {"num": 4000, "mean": 1.8002388714179396, "std": 0.9275882658077249}, "Loss/scores/real": {"num": 4248, "mean": 1.426499044922533, "std": 1.5797409974989567}, "Loss/signs/real": {"num": 4248, "mean": 0.6624293785310734, "std": 0.7491243678181453}, "Loss/D/loss": {"num": 4000, "mean": 0.7682514952979982, "std": 0.5176234208518566}, "Loss/r1_penalty": {"num": 248, "mean": 0.02691216575312278, "std": 0.02596593443579615}, "Loss/D/reg": {"num": 248, "mean": 0.11033987748106161, "std": 0.10646032798925673}, "Progress/tick": {"num": 1, "mean": 27.0, "std": 0.0}, "Progress/kimg": {"num": 1, "mean": 108.00399780273438, "std": 0.0}, "Timing/total_sec": {"num": 1, "mean": 55908.2109375, "std": 0.0}, "Timing/sec_per_tick": {"num": 1, "mean": 1916.51416015625, "std": 0.0}, "Timing/sec_per_kimg": {"num": 1, "mean": 479.1285400390625, "std": 0.0}, "Timing/maintenance_sec": {"num": 1, "mean": 0.16117548942565918, "std": 0.0}, "Resources/cpu_mem_gb": {"num": 1, "mean": 4.283699035644531, "std": 0.0}, "Resources/peak_gpu_mem_gb": {"num": 1, "mean": 10.696178436279297, "std": 0.0}, "Resources/peak_gpu_mem_reserved_gb": {"num": 1, "mean": 13.2265625, "std": 0.0}, "Progress/augment": {"num": 1, "mean": 0.10582471638917923, "std": 0.0}, "Timing/total_hours": {"num": 1, "mean": 15.530058860778809, "std": 0.0}, "Timing/total_days": {"num": 1, "mean": 0.6470857858657837, "std": 0.0}, "Timing/Gboth": {"num": 1, "mean": 1054.2705078125, "std": 0.0}, "Timing/Dmain": {"num": 1, "mean": 839.783447265625, "std": 0.0}, "Timing/Dreg": {"num": 1, "mean": 457.1678771972656, "std": 0.0}, "timestamp": 1637042939.9463315}
{"Loss/scores/fake": {"num": 8000, "mean": -1.2392388584204017, "std": 1.156475348062337}, "Loss/signs/fake": {"num": 8000, "mean": -0.7295, "std": 0.6839808111343475}, "Loss/G/loss": {"num": 4000, "mean": 1.6836788810342551, "std": 0.8653874355449814}, "Loss/scores/real": {"num": 4252, "mean": 1.2590803079594448, "std": 1.3854137017978416}, "Loss/signs/real": {"num": 4252, "mean": 0.6307619943555973, "std": 0.7759763569056402}, "Loss/D/loss": {"num": 4000, "mean": 0.8041752585619688, "std": 0.4826431343299404}, "Loss/r1_penalty": {"num": 252, "mean": 0.02782600306506668, "std": 0.021636207682387318}, "Loss/D/reg": {"num": 252, "mean": 0.1140866091859246, "std": 0.08870845099913381}, "Progress/tick": {"num": 1, "mean": 28.0, "std": 0.0}, "Progress/kimg": {"num": 1, "mean": 112.00399780273438, "std": 0.0}, "Timing/total_sec": {"num": 1, "mean": 57836.16015625, "std": 0.0}, "Timing/sec_per_tick": {"num": 1, "mean": 1927.8074951171875, "std": 0.0}, "Timing/sec_per_kimg": {"num": 1, "mean": 481.9518737792969, "std": 0.0}, "Timing/maintenance_sec": {"num": 1, "mean": 0.14139962196350098, "std": 0.0}, "Resources/cpu_mem_gb": {"num": 1, "mean": 4.284130096435547, "std": 0.0}, "Resources/peak_gpu_mem_gb": {"num": 1, "mean": 10.594398498535156, "std": 0.0}, "Resources/peak_gpu_mem_reserved_gb": {"num": 1, "mean": 13.228515625, "std": 0.0}, "Progress/augment": {"num": 1, "mean": 0.10848073661327362, "std": 0.0}, "Timing/total_hours": {"num": 1, "mean": 16.06559944152832, "std": 0.0}, "Timing/total_days": {"num": 1, "mean": 0.6693999767303467, "std": 0.0}, "Timing/Gboth": {"num": 1, "mean": 1056.85302734375, "std": 0.0}, "Timing/Dmain": {"num": 1, "mean": 837.7364501953125, "std": 0.0}, "Timing/Dreg": {"num": 1, "mean": 462.3882141113281, "std": 0.0}, "timestamp": 1637044867.9231443}
{"Loss/scores/fake": {"num": 8000, "mean": -1.2736703552808613, "std": 1.1913470019269365}, "Loss/signs/fake": {"num": 8000, "mean": -0.72375, "std": 0.6900622707408369}, "Loss/G/loss": {"num": 4000, "mean": 1.7050241898149252, "std": 0.8929611195255063}, "Loss/scores/real": {"num": 4248, "mean": 1.320007948352203, "std": 1.466089213597725}, "Loss/signs/real": {"num": 4248, "mean": 0.6530131826741996, "std": 0.7573465410587893}, "Loss/D/loss": {"num": 4000, "mean": 0.7926991492509842, "std": 0.4867440250918773}, "Loss/r1_penalty": {"num": 248, "mean": 0.026967522267612717, "std": 0.021475777109280208}, "Loss/D/reg": {"num": 248, "mean": 0.11056683801354901, "std": 0.08805068462722627}, "Progress/tick": {"num": 1, "mean": 29.0, "std": 0.0}, "Progress/kimg": {"num": 1, "mean": 116.00399780273438, "std": 0.0}, "Timing/total_sec": {"num": 1, "mean": 59759.05859375, "std": 0.0}, "Timing/sec_per_tick": {"num": 1, "mean": 1922.72900390625, "std": 0.0}, "Timing/sec_per_kimg": {"num": 1, "mean": 480.6822509765625, "std": 0.0}, "Timing/maintenance_sec": {"num": 1, "mean": 0.16930103302001953, "std": 0.0}, "Resources/cpu_mem_gb": {"num": 1, "mean": 4.284553527832031, "std": 0.0}, "Resources/peak_gpu_mem_gb": {"num": 1, "mean": 10.636001586914062, "std": 0.0}, "Resources/peak_gpu_mem_reserved_gb": {"num": 1, "mean": 13.228515625, "std": 0.0}, "Progress/augment": {"num": 1, "mean": 0.11139275878667831, "std": 0.0}, "Timing/total_hours": {"num": 1, "mean": 16.59973907470703, "std": 0.0}, "Timing/total_days": {"num": 1, "mean": 0.6916557550430298, "std": 0.0}, "Timing/Gboth": {"num": 1, "mean": 1052.1558837890625, "std": 0.0}, "Timing/Dmain": {"num": 1, "mean": 835.2634887695312, "std": 0.0}, "Timing/Dreg": {"num": 1, "mean": 438.4296875, "std": 0.0}, "timestamp": 1637046790.7926707}
{"Loss/scores/fake": {"num": 8000, "mean": -1.3302758051082493, "std": 1.220978363531518}, "Loss/signs/fake": {"num": 8000, "mean": -0.73775, "std": 0.6750740237188808}, "Loss/G/loss": {"num": 4000, "mean": 1.7624061972051859, "std": 0.923923279121006}, "Loss/scores/real": {"num": 4252, "mean": 1.3580002151850195, "std": 1.4586962315194805}, "Loss/signs/real": {"num": 4252, "mean": 0.6566321730950141, "std": 0.7542109713180519}, "Loss/D/loss": {"num": 4000, "mean": 0.7750875244364143, "std": 0.4980307147547406}, "Loss/r1_penalty": {"num": 252, "mean": 0.027992743355709882, "std": 0.02025859591748642}, "Loss/D/reg": {"num": 252, "mean": 0.11477024474787334, "std": 0.08306024037529251}, "Progress/tick": {"num": 1, "mean": 30.0, "std": 0.0}, "Progress/kimg": {"num": 1, "mean": 120.00399780273438, "std": 0.0}, "Timing/total_sec": {"num": 1, "mean": 61675.25390625, "std": 0.0}, "Timing/sec_per_tick": {"num": 1, "mean": 1916.05615234375, "std": 0.0}, "Timing/sec_per_kimg": {"num": 1, "mean": 479.0140380859375, "std": 0.0}, "Timing/maintenance_sec": {"num": 1, "mean": 0.14059972763061523, "std": 0.0}, "Resources/cpu_mem_gb": {"num": 1, "mean": 4.284961700439453, "std": 0.0}, "Resources/peak_gpu_mem_gb": {"num": 1, "mean": 10.83344841003418, "std": 0.0}, "Resources/peak_gpu_mem_reserved_gb": {"num": 1, "mean": 13.228515625, "std": 0.0}, "Progress/augment": {"num": 1, "mean": 0.11366477608680725, "std": 0.0}, "Timing/total_hours": {"num": 1, "mean": 17.132015228271484, "std": 0.0}, "Timing/total_days": {"num": 1, "mean": 0.7138339877128601, "std": 0.0}, "Timing/Gboth": {"num": 1, "mean": 1048.7132568359375, "std": 0.0}, "Timing/Dmain": {"num": 1, "mean": 833.7715454101562, "std": 0.0}, "Timing/Dreg": {"num": 1, "mean": 446.94732666015625, "std": 0.0}, "timestamp": 1637048707.0136297}
{"Loss/scores/fake": {"num": 8000, "mean": -1.325978354457766, "std": 1.213191560486725}, "Loss/signs/fake": {"num": 8000, "mean": -0.731, "std": 0.6823774615269763}, "Loss/G/loss": {"num": 4000, "mean": 1.7525578582882881, "std": 0.9203649079889237}, "Loss/scores/real": {"num": 4248, "mean": 1.3705180570300801, "std": 1.4797205576525354}, "Loss/signs/real": {"num": 4248, "mean": 0.6760828625235404, "std": 0.7368255987694615}, "Loss/D/loss": {"num": 4000, "mean": 0.7659678710252047, "std": 0.47919316110133864}, "Loss/r1_penalty": {"num": 248, "mean": 0.028473458305421855, "std": 0.021166350560931954}, "Loss/D/reg": {"num": 248, "mean": 0.11674117624399162, "std": 0.08678203710290741}, "Progress/tick": {"num": 1, "mean": 31.0, "std": 0.0}, "Progress/kimg": {"num": 1, "mean": 124.00399780273438, "std": 0.0}, "Timing/total_sec": {"num": 1, "mean": 63598.40234375, "std": 0.0}, "Timing/sec_per_tick": {"num": 1, "mean": 1922.981689453125, "std": 0.0}, "Timing/sec_per_kimg": {"num": 1, "mean": 480.74542236328125, "std": 0.0}, "Timing/maintenance_sec": {"num": 1, "mean": 0.16459369659423828, "std": 0.0}, "Resources/cpu_mem_gb": {"num": 1, "mean": 4.285408020019531, "std": 0.0}, "Resources/peak_gpu_mem_gb": {"num": 1, "mean": 10.718463897705078, "std": 0.0}, "Resources/peak_gpu_mem_reserved_gb": {"num": 1, "mean": 13.228515625, "std": 0.0}, "Progress/augment": {"num": 1, "mean": 0.11667279899120331, "std": 0.0}, "Timing/total_hours": {"num": 1, "mean": 17.666223526000977, "std": 0.0}, "Timing/total_days": {"num": 1, "mean": 0.7360926270484924, "std": 0.0}, "Timing/Gboth": {"num": 1, "mean": 1061.8634033203125, "std": 0.0}, "Timing/Dmain": {"num": 1, "mean": 841.8477783203125, "std": 0.0}, "Timing/Dreg": {"num": 1, "mean": 441.0460205078125, "std": 0.0}, "timestamp": 1637050630.1380992}
{"Loss/scores/fake": {"num": 8000, "mean": -1.3140242730677127, "std": 1.2021518450853497}, "Loss/signs/fake": {"num": 8000, "mean": -0.7295, "std": 0.6839808111343475}, "Loss/G/loss": {"num": 4000, "mean": 1.7344411088228227, "std": 0.9070530385305692}, "Loss/scores/real": {"num": 4252, "mean": 1.3430665796473693, "std": 1.4681335021288782}, "Loss/signs/real": {"num": 4252, "mean": 0.6655691439322672, "std": 0.7463361941144682}, "Loss/D/loss": {"num": 4000, "mean": 0.7737868451625108, "std": 0.49763217212838445}, "Loss/r1_penalty": {"num": 252, "mean": 0.028011303494817445, "std": 0.022810331992517956}, "Loss/D/reg": {"num": 252, "mean": 0.11484634231716867, "std": 0.09352235995990944}, "Progress/tick": {"num": 1, "mean": 32.0, "std": 0.0}, "Progress/kimg": {"num": 1, "mean": 128.00399780273438, "std": 0.0}, "Timing/total_sec": {"num": 1, "mean": 65529.08984375, "std": 0.0}, "Timing/sec_per_tick": {"num": 1, "mean": 1930.5460205078125, "std": 0.0}, "Timing/sec_per_kimg": {"num": 1, "mean": 482.6365051269531, "std": 0.0}, "Timing/maintenance_sec": {"num": 1, "mean": 0.14310646057128906, "std": 0.0}, "Resources/cpu_mem_gb": {"num": 1, "mean": 4.285858154296875, "std": 0.0}, "Resources/peak_gpu_mem_gb": {"num": 1, "mean": 10.697832107543945, "std": 0.0}, "Resources/peak_gpu_mem_reserved_gb": {"num": 1, "mean": 13.23046875, "std": 0.0}, "Progress/augment": {"num": 1, "mean": 0.11942481994628906, "std": 0.0}, "Timing/total_hours": {"num": 1, "mean": 18.202524185180664, "std": 0.0}, "Timing/total_days": {"num": 1, "mean": 0.7584385275840759, "std": 0.0}, "Timing/Gboth": {"num": 1, "mean": 1060.3826904296875, "std": 0.0}, "Timing/Dmain": {"num": 1, "mean": 837.3319702148438, "std": 0.0}, "Timing/Dreg": {"num": 1, "mean": 454.1112365722656, "std": 0.0}, "timestamp": 1637052560.851191}
{"Loss/scores/fake": {"num": 8000, "mean": -1.331903276603669, "std": 1.1717177442295117}, "Loss/signs/fake": {"num": 8000, "mean": -0.7345, "std": 0.6786086869470505}, "Loss/G/loss": {"num": 4000, "mean": 1.7570565655231476, "std": 0.8838893810800811}, "Loss/scores/real": {"num": 4248, "mean": 1.4219480816155616, "std": 1.6470523029269006}, "Loss/signs/real": {"num": 4248, "mean": 0.6581920903954802, "std": 0.752850032968604}, "Loss/D/loss": {"num": 4000, "mean": 0.7573502146303653, "std": 0.47256841339289574}, "Loss/r1_penalty": {"num": 248, "mean": 0.02998398761865833, "std": 0.022269098197186515}, "Loss/D/reg": {"num": 248, "mean": 0.12293434503578371, "std": 0.09130329843265135}, "Progress/tick": {"num": 1, "mean": 33.0, "std": 0.0}, "Progress/kimg": {"num": 1, "mean": 132.00399780273438, "std": 0.0}, "Timing/total_sec": {"num": 1, "mean": 67452.3984375, "std": 0.0}, "Timing/sec_per_tick": {"num": 1, "mean": 1923.1417236328125, "std": 0.0}, "Timing/sec_per_kimg": {"num": 1, "mean": 480.7854309082031, "std": 0.0}, "Timing/maintenance_sec": {"num": 1, "mean": 0.16671347618103027, "std": 0.0}, "Resources/cpu_mem_gb": {"num": 1, "mean": 4.286312103271484, "std": 0.0}, "Resources/peak_gpu_mem_gb": {"num": 1, "mean": 10.7211332321167, "std": 0.0}, "Resources/peak_gpu_mem_reserved_gb": {"num": 1, "mean": 13.23046875, "std": 0.0}, "Progress/augment": {"num": 1, "mean": 0.12172883749008179, "std": 0.0}, "Timing/total_hours": {"num": 1, "mean": 18.736778259277344, "std": 0.0}, "Timing/total_days": {"num": 1, "mean": 0.7806990742683411, "std": 0.0}, "Timing/Gboth": {"num": 1, "mean": 1056.6707763671875, "std": 0.0}, "Timing/Dmain": {"num": 1, "mean": 835.4478149414062, "std": 0.0}, "Timing/Dreg": {"num": 1, "mean": 438.9806213378906, "std": 0.0}, "timestamp": 1637054484.132693}
{"Loss/scores/fake": {"num": 8000, "mean": -1.3607319206818937, "std": 1.2232055001758548}, "Loss/signs/fake": {"num": 8000, "mean": -0.7325, "std": 0.6807670306352974}, "Loss/G/loss": {"num": 4000, "mean": 1.7812672270983458, "std": 0.9364806905734}, "Loss/scores/real": {"num": 4252, "mean": 1.4114281613859834, "std": 1.5256060206772313}, "Loss/signs/real": {"num": 4252, "mean": 0.6721542803386642, "std": 0.7404111178409009}, "Loss/D/loss": {"num": 4000, "mean": 0.7565343633629381, "std": 0.47662155649844834}, "Loss/r1_penalty": {"num": 252, "mean": 0.028004892510435885, "std": 0.01943941701958853}, "Loss/D/reg": {"num": 252, "mean": 0.11482005504270394, "std": 0.07970161077567522}, "Progress/tick": {"num": 1, "mean": 34.0, "std": 0.0}, "Progress/kimg": {"num": 1, "mean": 136.00399780273438, "std": 0.0}, "Timing/total_sec": {"num": 1, "mean": 69369.28125, "std": 0.0}, "Timing/sec_per_tick": {"num": 1, "mean": 1916.7449951171875, "std": 0.0}, "Timing/sec_per_kimg": {"num": 1, "mean": 479.1862487792969, "std": 0.0}, "Timing/maintenance_sec": {"num": 1, "mean": 0.13988804817199707, "std": 0.0}, "Resources/cpu_mem_gb": {"num": 1, "mean": 4.286746978759766, "std": 0.0}, "Resources/peak_gpu_mem_gb": {"num": 1, "mean": 10.718621253967285, "std": 0.0}, "Resources/peak_gpu_mem_reserved_gb": {"num": 1, "mean": 13.23046875, "std": 0.0}, "Progress/augment": {"num": 1, "mean": 0.1245768591761589, "std": 0.0}, "Timing/total_hours": {"num": 1, "mean": 19.269245147705078, "std": 0.0}, "Timing/total_days": {"num": 1, "mean": 0.8028852343559265, "std": 0.0}, "Timing/Gboth": {"num": 1, "mean": 1044.849609375, "std": 0.0}, "Timing/Dmain": {"num": 1, "mean": 832.574462890625, "std": 0.0}, "Timing/Dreg": {"num": 1, "mean": 445.0467834472656, "std": 0.0}, "timestamp": 1637056401.0423784}
{"Loss/scores/fake": {"num": 8000, "mean": -1.3658887137249112, "std": 1.2224396562938036}, "Loss/signs/fake": {"num": 8000, "mean": -0.7435, "std": 0.6687359344315212}, "Loss/G/loss": {"num": 4000, "mean": 1.7859885065704584, "std": 0.9220709212840551}, "Loss/scores/real": {"num": 4248, "mean": 1.3575615735685982, "std": 1.3882163438061537}, "Loss/signs/real": {"num": 4248, "mean": 0.6699623352165726, "std": 0.7423950898215564}, "Loss/D/loss": {"num": 4000, "mean": 0.7585306916907429, "std": 0.4860313721626845}, "Loss/r1_penalty": {"num": 248, "mean": 0.027571308220015658, "std": 0.024334957671369752}, "Loss/D/reg": {"num": 248, "mean": 0.11304236119312625, "std": 0.09977332525276314}, "Progress/tick": {"num": 1, "mean": 35.0, "std": 0.0}, "Progress/kimg": {"num": 1, "mean": 140.00399780273438, "std": 0.0}, "Timing/total_sec": {"num": 1, "mean": 71294.09375, "std": 0.0}, "Timing/sec_per_tick": {"num": 1, "mean": 1924.6424560546875, "std": 0.0}, "Timing/sec_per_kimg": {"num": 1, "mean": 481.1606140136719, "std": 0.0}, "Timing/maintenance_sec": {"num": 1, "mean": 0.16482138633728027, "std": 0.0}, "Resources/cpu_mem_gb": {"num": 1, "mean": 4.287181854248047, "std": 0.0}, "Resources/peak_gpu_mem_gb": {"num": 1, "mean": 10.74222183227539, "std": 0.0}, "Resources/peak_gpu_mem_reserved_gb": {"num": 1, "mean": 13.232421875, "std": 0.0}, "Progress/augment": {"num": 1, "mean": 0.12745630741119385, "std": 0.0}, "Timing/total_hours": {"num": 1, "mean": 19.80391502380371, "std": 0.0}, "Timing/total_days": {"num": 1, "mean": 0.8251630663871765, "std": 0.0}, "Timing/Gboth": {"num": 1, "mean": 1062.2115478515625, "std": 0.0}, "Timing/Dmain": {"num": 1, "mean": 836.7216796875, "std": 0.0}, "Timing/Dreg": {"num": 1, "mean": 447.6651611328125, "std": 0.0}, "timestamp": 1637058325.8254144}
{"Loss/scores/fake": {"num": 8000, "mean": -1.4579690122157336, "std": 1.289091101646825}, "Loss/signs/fake": {"num": 8000, "mean": -0.749, "std": 0.6625699963022775}, "Loss/G/loss": {"num": 4000, "mean": 1.8599630667120217, "std": 1.013634995930964}, "Loss/scores/real": {"num": 4252, "mean": 1.4754581473634587, "std": 1.5055813397849884}, "Loss/signs/real": {"num": 4252, "mean": 0.6900282220131703, "std": 0.7237824623637568}, "Loss/D/loss": {"num": 4000, "mean": 0.7198165063783526, "std": 0.4824261120685911}, "Loss/r1_penalty": {"num": 252, "mean": 0.029498659916931673, "std": 0.027456930403697895}, "Loss/D/reg": {"num": 252, "mean": 0.1209445031625884, "std": 0.11257341074620196}, "Progress/tick": {"num": 1, "mean": 36.0, "std": 0.0}, "Progress/kimg": {"num": 1, "mean": 144.00399780273438, "std": 0.0}, "Timing/total_sec": {"num": 1, "mean": 73225.6640625, "std": 0.0}, "Timing/sec_per_tick": {"num": 1, "mean": 1931.434326171875, "std": 0.0}, "Timing/sec_per_kimg": {"num": 1, "mean": 482.85858154296875, "std": 0.0}, "Timing/maintenance_sec": {"num": 1, "mean": 0.1402263641357422, "std": 0.0}, "Resources/cpu_mem_gb": {"num": 1, "mean": 4.287654876708984, "std": 0.0}, "Resources/peak_gpu_mem_gb": {"num": 1, "mean": 10.729877471923828, "std": 0.0}, "Resources/peak_gpu_mem_reserved_gb": {"num": 1, "mean": 13.232421875, "std": 0.0}, "Progress/augment": {"num": 1, "mean": 0.1308155506849289, "std": 0.0}, "Timing/total_hours": {"num": 1, "mean": 20.34046173095703, "std": 0.0}, "Timing/total_days": {"num": 1, "mean": 0.8475192785263062, "std": 0.0}, "Timing/Gboth": {"num": 1, "mean": 1065.2333984375, "std": 0.0}, "Timing/Dmain": {"num": 1, "mean": 841.4935302734375, "std": 0.0}, "Timing/Dreg": {"num": 1, "mean": 445.5126953125, "std": 0.0}, "timestamp": 1637060257.4239128}
{"Loss/scores/fake": {"num": 8000, "mean": -1.3991533388197421, "std": 1.285560457770391}, "Loss/signs/fake": {"num": 8000, "mean": -0.74125, "std": 0.671229049952399}, "Loss/G/loss": {"num": 4000, "mean": 1.8019346956685185, "std": 0.9792946690664323}, "Loss/scores/real": {"num": 4248, "mean": 1.4769773466438898, "std": 1.5612978186854112}, "Loss/signs/real": {"num": 4248, "mean": 0.6793785310734464, "std": 0.7337879881249667}, "Loss/D/loss": {"num": 4000, "mean": 0.7395641096774489, "std": 0.4832175616930524}, "Loss/r1_penalty": {"num": 248, "mean": 0.0291490008371071, "std": 0.025023241209732736}, "Loss/D/reg": {"num": 248, "mean": 0.11951089962836235, "std": 0.10259528798208581}, "Progress/tick": {"num": 1, "mean": 37.0, "std": 0.0}, "Progress/kimg": {"num": 1, "mean": 148.00399780273438, "std": 0.0}, "Timing/total_sec": {"num": 1, "mean": 75152.5625, "std": 0.0}, "Timing/sec_per_tick": {"num": 1, "mean": 1926.7314453125, "std": 0.0}, "Timing/sec_per_kimg": {"num": 1, "mean": 481.682861328125, "std": 0.0}, "Timing/maintenance_sec": {"num": 1, "mean": 0.16455316543579102, "std": 0.0}, "Resources/cpu_mem_gb": {"num": 1, "mean": 4.288108825683594, "std": 0.0}, "Resources/peak_gpu_mem_gb": {"num": 1, "mean": 10.692827224731445, "std": 0.0}, "Resources/peak_gpu_mem_reserved_gb": {"num": 1, "mean": 13.232421875, "std": 0.0}, "Progress/augment": {"num": 1, "mean": 0.13372689485549927, "std": 0.0}, "Timing/total_hours": {"num": 1, "mean": 20.87571144104004, "std": 0.0}, "Timing/total_days": {"num": 1, "mean": 0.869821310043335, "std": 0.0}, "Timing/Gboth": {"num": 1, "mean": 1054.002197265625, "std": 0.0}, "Timing/Dmain": {"num": 1, "mean": 836.8250732421875, "std": 0.0}, "Timing/Dreg": {"num": 1, "mean": 451.8778991699219, "std": 0.0}, "timestamp": 1637062184.2960668}
{"Loss/scores/fake": {"num": 8000, "mean": -1.2246363477371633, "std": 1.1697338611752566}, "Loss/signs/fake": {"num": 8000, "mean": -0.709, "std": 0.7052084798128849}, "Loss/G/loss": {"num": 4000, "mean": 1.6537056806311012, "std": 0.868103485404339}, "Loss/scores/real": {"num": 4252, "mean": 1.281934977853399, "std": 1.4487394723888778}, "Loss/signs/real": {"num": 4252, "mean": 0.6396989651928504, "std": 0.7686255485808394}, "Loss/D/loss": {"num": 4000, "mean": 0.7949623965024948, "std": 0.4720727459882929}, "Loss/r1_penalty": {"num": 252, "mean": 0.02890058388076131, "std": 0.02277158713282679}, "Loss/D/reg": {"num": 252, "mean": 0.11849239096045494, "std": 0.09336350536092183}, "Progress/tick": {"num": 1, "mean": 38.0, "std": 0.0}, "Progress/kimg": {"num": 1, "mean": 152.00399780273438, "std": 0.0}, "Timing/total_sec": {"num": 1, "mean": 77070.96875, "std": 0.0}, "Timing/sec_per_tick": {"num": 1, "mean": 1918.2672119140625, "std": 0.0}, "Timing/sec_per_kimg": {"num": 1, "mean": 479.5668029785156, "std": 0.0}, "Timing/maintenance_sec": {"num": 1, "mean": 0.1405656337738037, "std": 0.0}, "Resources/cpu_mem_gb": {"num": 1, "mean": 4.288562774658203, "std": 0.0}, "Resources/peak_gpu_mem_gb": {"num": 1, "mean": 10.953149795532227, "std": 0.0}, "Resources/peak_gpu_mem_reserved_gb": {"num": 1, "mean": 13.232421875, "std": 0.0}, "Progress/augment": {"num": 1, "mean": 0.1357104480266571, "std": 0.0}, "Timing/total_hours": {"num": 1, "mean": 21.408601760864258, "std": 0.0}, "Timing/total_days": {"num": 1, "mean": 0.8920251131057739, "std": 0.0}, "Timing/Gboth": {"num": 1, "mean": 1048.76953125, "std": 0.0}, "Timing/Dmain": {"num": 1, "mean": 829.0160522460938, "std": 0.0}, "Timing/Dreg": {"num": 1, "mean": 455.5601806640625, "std": 0.0}, "timestamp": 1637064102.730949}
{"Loss/scores/fake": {"num": 8000, "mean": -1.5402443902418017, "std": 1.3518859669391168}, "Loss/signs/fake": {"num": 8000, "mean": -0.7585, "std": 0.6516730391845286}, "Loss/G/loss": {"num": 4000, "mean": 1.9274150399416685, "std": 1.0583351448935077}, "Loss/scores/real": {"num": 4248, "mean": 1.56410767020142, "std": 1.4691438411070867}, "Loss/signs/real": {"num": 4248, "mean": 0.7109227871939736, "std": 0.7032700694956043}, "Loss/D/loss": {"num": 4000, "mean": 0.6962385667040945, "std": 0.5028289315246877}, "Loss/r1_penalty": {"num": 248, "mean": 0.02790971363954727, "std": 0.022339771622678296}, "Loss/D/reg": {"num": 248, "mean": 0.11442982336325992, "std": 0.09159306211865469}, "Progress/tick": {"num": 1, "mean": 39.0, "std": 0.0}, "Progress/kimg": {"num": 1, "mean": 156.00399780273438, "std": 0.0}, "Timing/total_sec": {"num": 1, "mean": 78991.46875, "std": 0.0}, "Timing/sec_per_tick": {"num": 1, "mean": 1920.3319091796875, "std": 0.0}, "Timing/sec_per_kimg": {"num": 1, "mean": 480.0829772949219, "std": 0.0}, "Timing/maintenance_sec": {"num": 1, "mean": 0.16782665252685547, "std": 0.0}, "Resources/cpu_mem_gb": {"num": 1, "mean": 4.289005279541016, "std": 0.0}, "Resources/peak_gpu_mem_gb": {"num": 1, "mean": 10.723498344421387, "std": 0.0}, "Resources/peak_gpu_mem_reserved_gb": {"num": 1, "mean": 13.234375, "std": 0.0}, "Progress/augment": {"num": 1, "mean": 0.13970954716205597, "std": 0.0}, "Timing/total_hours": {"num": 1, "mean": 21.942073822021484, "std": 0.0}, "Timing/total_days": {"num": 1, "mean": 0.9142531156539917, "std": 0.0}, "Timing/Gboth": {"num": 1, "mean": 1055.5555419921875, "std": 0.0}, "Timing/Dmain": {"num": 1, "mean": 837.359619140625, "std": 0.0}, "Timing/Dreg": {"num": 1, "mean": 444.1743469238281, "std": 0.0}, "timestamp": 1637066023.204376}
{"Loss/scores/fake": {"num": 8000, "mean": -1.2801763870716094, "std": 1.2162710911124048}, "Loss/signs/fake": {"num": 8000, "mean": -0.715, "std": 0.6991244524403363}, "Loss/G/loss": {"num": 4000, "mean": 1.7006549241021276, "std": 0.9153337967874342}, "Loss/scores/real": {"num": 4252, "mean": 1.2881517792549877, "std": 1.3731496395644247}, "Loss/signs/real": {"num": 4252, "mean": 0.6556914393226717, "std": 0.7550289639470549}, "Loss/D/loss": {"num": 4000, "mean": 0.7905014145225286, "std": 0.5552402335322238}, "Loss/r1_penalty": {"num": 252, "mean": 0.027495817636095342, "std": 0.021583809728580997}, "Loss/D/reg": {"num": 252, "mean": 0.1127328501777753, "std": 0.08849361668397586}, "Progress/tick": {"num": 1, "mean": 40.0, "std": 0.0}, "Progress/kimg": {"num": 1, "mean": 160.00399780273438, "std": 0.0}, "Timing/total_sec": {"num": 1, "mean": 80921.890625, "std": 0.0}, "Timing/sec_per_tick": {"num": 1, "mean": 1930.2772216796875, "std": 0.0}, "Timing/sec_per_kimg": {"num": 1, "mean": 482.5693054199219, "std": 0.0}, "Timing/maintenance_sec": {"num": 1, "mean": 0.14128565788269043, "std": 0.0}, "Resources/cpu_mem_gb": {"num": 1, "mean": 4.289447784423828, "std": 0.0}, "Resources/peak_gpu_mem_gb": {"num": 1, "mean": 10.772139549255371, "std": 0.0}, "Resources/peak_gpu_mem_reserved_gb": {"num": 1, "mean": 13.234375, "std": 0.0}, "Progress/augment": {"num": 1, "mean": 0.14159712195396423, "std": 0.0}, "Timing/total_hours": {"num": 1, "mean": 22.478302001953125, "std": 0.0}, "Timing/total_days": {"num": 1, "mean": 0.9365959167480469, "std": 0.0}, "Timing/Gboth": {"num": 1, "mean": 1064.77978515625, "std": 0.0}, "Timing/Dmain": {"num": 1, "mean": 840.1796875, "std": 0.0}, "Timing/Dreg": {"num": 1, "mean": 443.03155517578125, "std": 0.0}, "timestamp": 1637067953.6451907}
